Data,Cliente,Ativo,Tipo,Quantidade,Valor Unitário
01/07/20,Maria da Silva,IVVB11,Compra,30,"240,59"
03/07/20,Maria da Silva,IVVB11,Venda,17,"241,2"
15/08/20,Maria da Silva,IVVB11,Compra,12,"238,67"
19/09/20,Maria da Silva,IVVB11,Compra,35,"236,8"
05/01/21,Maria da Silva,IVVB11,Compra,43,"237,6"
05/02/21,Maria da Silva,IVVB11,Compra,52,"234,6"
10/04/21,Maria da Silva,IVVB11,Venda,44,"239,8"
03/05/21,Maria da Silva,IVVB11,Venda,22,"240,6"
09/10/20,Maria da Silva,BOVA11,Compra,53,"121,17"
30/11/20,Maria da Silva,BOVA11,Compra,8,"118,6"
07/12/20,Maria da Silva,BOVA11,Venda,9,"120,4"
02/02/21,Maria da Silva,BOVA11,Venda,31,"130,3"
06/05/21,Maria da Silva,BOVA11,Compra,41,"131"